<?xml version="1.0" encoding="UTF-8" standalone="no"?>
<!-- Created with Inkscape (http://www.inkscape.org/) -->

<svg
   xmlns:dc="http://purl.org/dc/elements/1.1/"
   xmlns:cc="http://creativecommons.org/ns#"
   xmlns:rdf="http://www.w3.org/1999/02/22-rdf-syntax-ns#"
   xmlns:svg="http://www.w3.org/2000/svg"
   xmlns="http://www.w3.org/2000/svg"
   xmlns:sodipodi="http://sodipodi.sourceforge.net/DTD/sodipodi-0.dtd"
   xmlns:inkscape="http://www.inkscape.org/namespaces/inkscape"
   width="1010.9374"
   height="1010.9374"
   viewBox="0 0 267.4772 267.4772"
   version="1.1"
   id="svg4679"
   inkscape:version="0.92.1 r15371"
   sodipodi:docname="no-logs-fist.svg">
  <defs
     id="defs4673" />
  <sodipodi:namedview
     id="base"
     pagecolor="#ffffff"
     bordercolor="#666666"
     borderopacity="1.0"
     inkscape:pageopacity="0.0"
     inkscape:pageshadow="2"
     inkscape:zoom="0.35"
     inkscape:cx="-54.531283"
     inkscape:cy="416.89734"
     inkscape:document-units="mm"
     inkscape:current-layer="layer1"
     showgrid="false"
     fit-margin-top="0"
     fit-margin-left="0"
     fit-margin-right="0"
     fit-margin-bottom="0"
     units="px"
     inkscape:window-width="1871"
     inkscape:window-height="1056"
     inkscape:window-x="1969"
     inkscape:window-y="24"
     inkscape:window-maximized="1" />
  <metadata
     id="metadata4676">
    <rdf:RDF>
      <cc:Work
         rdf:about="">
        <dc:format>image/svg+xml</dc:format>
        <dc:type
           rdf:resource="http://purl.org/dc/dcmitype/StillImage" />
        <dc:title></dc:title>
      </cc:Work>
    </rdf:RDF>
  </metadata>
  <g
     inkscape:label="Layer 1"
     inkscape:groupmode="layer"
     id="layer1"
     transform="translate(16.565979,8.3397827)">
    <circle
       style="display:inline;opacity:1;fill:#000000;fill-opacity:1;stroke:none;stroke-width:0.52916664;stroke-linecap:square;stroke-linejoin:miter;stroke-miterlimit:4;stroke-dasharray:none;stroke-opacity:1"
       id="path4591"
       cx="117.17262"
       cy="125.39882"
       r="133.7386" />
    <g
       style="display:inline"
       id="g5108"
       transform="matrix(0.2822222,0,0,0.2822222,-394.14838,-43.231671)">
      <g
         transform="matrix(0.20752839,0.01652217,-0.01652217,0.20752839,1469.7698,-50.298115)"
         id="g4370-1"
         style="display:inline;fill:#cc0000;fill-opacity:1">
        <path
           style="opacity:1;fill:#cc0000;fill-opacity:1;fill-rule:nonzero;stroke:none;stroke-width:0.1;stroke-linecap:round;stroke-linejoin:round;stroke-miterlimit:4;stroke-dasharray:none;stroke-dashoffset:0;stroke-opacity:1"
           d="m 867.38086,4160.9355 -178.74024,302.0606 52.65235,24.9394 48.49609,-55.4218 15.24024,80.3633 87.29297,51.2675 -26.32618,-162.1152 49.88086,27.7129 36.02539,-5.543 22.16993,-22.1699 29.09763,-66.5078 11.084,-67.8945 -40.18163,-59.5801 z m 25.63476,94.9141 38.79493,16.627 3.46484,49.8808 -54.73047,4.1582 -11.08594,-41.5683 z"
           id="path5071-4"
           inkscape:connector-curvature="0" />
        <path
           style="opacity:1;fill:#cc0000;fill-opacity:1;fill-rule:nonzero;stroke:none;stroke-width:0.1;stroke-linecap:round;stroke-linejoin:round;stroke-miterlimit:4;stroke-dasharray:none;stroke-dashoffset:0;stroke-opacity:1"
           d="m 1055.822,4386.7881 12.4704,20.7839 59.5805,5.5424 23.5551,-40.1822 -20.7839,-78.9788 -74.8221,9.6991 -18.0127,45.7246 z"
           id="path5073-6"
           inkscape:connector-curvature="0" />
        <path
           style="opacity:1;fill:#cc0000;fill-opacity:1;fill-rule:nonzero;stroke:none;stroke-width:0.1;stroke-linecap:round;stroke-linejoin:round;stroke-miterlimit:4;stroke-dasharray:none;stroke-dashoffset:0;stroke-opacity:1"
           d="m 1033.6525,4404.8008 56.8094,42.9534 -88.678,167.6568 -69.27966,-33.2542 z"
           id="path5075-9"
           inkscape:connector-curvature="0" />
        <path
           style="opacity:1;fill:#cc0000;fill-opacity:1;fill-rule:nonzero;stroke:none;stroke-width:0.1;stroke-linecap:round;stroke-linejoin:round;stroke-miterlimit:4;stroke-dasharray:none;stroke-dashoffset:0;stroke-opacity:1"
           d="m 1154.1992,4428.3559 -20.7839,76.2077 19.3983,96.9915 -90.0636,-9.6992 1.3856,69.2797 115.0042,42.9534 85.9068,-52.6526 6.928,-44.3389 -47.1102,-95.606 27.7119,-38.7966 h 37.411 l 5.5424,36.0254 52.6525,-1.3856 33.2542,-95.6059 -121.9322,-23.5551 z"
           id="path5077-4"
           inkscape:connector-curvature="0" />
        <path
           style="opacity:1;fill:#cc0000;fill-opacity:1;fill-rule:nonzero;stroke:none;stroke-width:0.1;stroke-linecap:round;stroke-linejoin:round;stroke-miterlimit:4;stroke-dasharray:none;stroke-dashoffset:0;stroke-opacity:1"
           d="m 1416.7691,4433.8983 184.9767,70.6653 -17.3199,73.4364 -111.5403,-34.6398 -10.392,57.5021 70.6653,20.0911 -2.7712,55.4237 -89.3707,-9.6991 -9.0064,32.5614 105.9979,29.0975 47.1101,79.6716 -6.9279,20.0911 -257.0276,-88.678 z"
           id="path5079-2"
           inkscape:connector-curvature="0" />
        <path
           style="opacity:1;fill:#cc0000;fill-opacity:1;fill-rule:nonzero;stroke:none;stroke-width:0.1;stroke-linecap:round;stroke-linejoin:round;stroke-miterlimit:4;stroke-dasharray:none;stroke-dashoffset:0;stroke-opacity:1"
           d="m 1658.5551,4509.4131 88.678,21.4767 -18.7056,193.2903 38.7967,36.0254 60.2733,-38.1038 3.4639,-186.3623 76.2077,-8.3136 3.464,172.5064 -1.3856,156.572 -47.803,1.3856 -11.7775,-38.7966 -22.8623,29.7903 -63.0445,5.5423 -121.9322,-89.3707 z"
           id="path5081-2"
           inkscape:connector-curvature="0" />
        <path
           style="opacity:1;fill:#cc0000;fill-opacity:1;fill-rule:nonzero;stroke:none;stroke-width:0.1;stroke-linecap:round;stroke-linejoin:round;stroke-miterlimit:4;stroke-dasharray:none;stroke-dashoffset:0;stroke-opacity:1"
           d="m 2137.2773,4530.1973 -173.8925,2.0781 16.6289,321.457 68.6801,-0.4302 -6.366,-124.7031 c 0,0 43.6823,9.4374 46.4534,8.7447 2.7713,-0.6928 83.8282,-63.7383 83.8282,-63.7383 l 7.6211,-79.6719 z m -103.9199,58.8867 h 31.1758 l 29.791,36.0254 1.3848,25.6347 -21.4766,19.3985 -37.4101,-7.6211 z"
           id="path5083-6"
           inkscape:connector-curvature="0"
           sodipodi:nodetypes="cccccccccccccccc" />
        <path
           inkscape:connector-curvature="0"
           style="opacity:1;fill:#cc0000;fill-opacity:1;fill-rule:nonzero;stroke:none;stroke-width:0.1;stroke-linecap:round;stroke-linejoin:round;stroke-miterlimit:4;stroke-dasharray:none;stroke-dashoffset:0;stroke-opacity:1"
           d="m 644.98438,3706.3848 -182.18165,164.0586 -168.875,-162.9532 42.79102,301.6133 -168.19922,160.834 207.70899,25.4746 162.64062,280.2109 21.55469,-315.4824 233.18359,-48.9883 -185.99414,-136.0019 z m -299.16407,103.6679 127.05664,114.9043 104.96094,-93.9121 -17.67578,165.7285 119.32422,87.2832 -156.89063,45.2989 -25.41211,177.8808 -90.59765,-155.7832 -133.6875,-14.3633 103.85742,-120.4296 z"
           id="path5091-4" />
      </g>
      <g
         id="g4737-1"
         style="display:inline;fill:#ffffff;fill-opacity:1"
         transform="translate(1344.5972,-4165.1548)">
        <path
           style="opacity:1;fill:#ffffff;fill-opacity:1;fill-rule:nonzero;stroke:none;stroke-width:0.1;stroke-linecap:round;stroke-linejoin:round;stroke-miterlimit:4;stroke-dasharray:none;stroke-dashoffset:0;stroke-opacity:1"
           d="m 434.10705,4488.3359 -22.86295,7.2491 -0.0679,0.2668 0.007,-0.2188 -31.22776,9.84 0.0935,0.095 -0.0935,-0.062 -18.06494,5.728 -0.0179,0.067 -0.0301,-0.035 -15.84809,5.0529 -0.002,-0.044 -6.50089,2.0611 -76.15345,36.9228 -49.61513,59.9996 -18.60166,32.426 -13.70565,46.0349 -6.67412,56.3877 8.71775,60.4749 12.95627,50.4442 36.92275,66.923 59.99959,55.3841 73.84593,35.7688 83.07639,19.6154 78.46097,-5.7691 69.09466,-14.6803 7.57436,-34.4314 -30.51537,15.6505 -63.46107,10.3844 -39.80726,7.1869 -68.06268,-12.2264 -49.05238,-16.8833 -38.47766,-16.9126 -39.98331,-29.2411 -42.69217,-58.846 -17.61481,-47.3235 -10.07746,-35.7529 -5.88488,-36.8809 1.27716,-40.6522 16.14613,-65.5429 36.92317,-56.5381 48.46117,-44.9997 55.63339,-23.1805 -0.0817,-0.06 6.30938,-2.6385 0.005,-0.01 0.0695,0.081 21.14094,-8.8088 8.2656,-1.0524 0.0317,0.032 16.50841,-2.1957 0.002,-0.054 0.0736,0.1033 38.5801,-4.9103 42.21926,1.5736 64.62806,16.7349 39.69014,24.3837 46.15365,40.3842 30.81628,49.7969 14.46072,48.8946 3.85184,32.9408 0.015,39.1551 -5.9349,24.5642 5.00864,14.1147 9.52528,34.3148 5.2762,-15.4679 5.75517,-31.5714 4.15517,-43.7449 -7.16042,-64.151 -11.48028,-34.7031 -23.11627,-47.6683 -21.26048,-31.3701 -43.37325,-32.796 -53.45191,-30.2332 -59.6064,-14.7055 -61.17143,-4.6765 z m 154.18826,198.2565 -23.3716,1.2621 3.85223,24.5687 11.86857,-1.3963 21.68175,10.5601 25.15298,20.1516 24.45239,31.1648 14.09723,25.8153 7.63413,25.645 -0.0451,1.6813 6.05119,29.4798 1.95174,17.0777 -1.62645,15.6138 -1.30115,9.7587 -0.26634,0.011 0.006,0.2517 -9.3744,33.8012 -13.12542,15.5252 -14.49408,11.8003 -9.61879,39.5283 19.24612,-15.4793 24.93506,-24.6768 18.32557,-28.3766 9.15038,-44.9289 -2.83286,-33.6353 -2.20547,-8.8202 -0.0276,0.086 -7.47515,-27.1418 -6.55579,-23.5761 0.0825,-0.2143 -22.23799,-44.8622 -34.64734,-33.4231 -20.01993,-16.7796 -19.26201,-10.4719 z m -137.25045,28.2708 -19.24533,5.3942 -43.84613,32.3077 -39.23029,44.9997 -19.39658,31.3989 23.08048,11.538 19.39252,-31.3985 35.76921,-46.1537 49.61512,-27.6923 4.60693,-5.2029 -1.66061,-9.8917 z m 221.87524,122.7731 -13.8142,31.4665 -25.38476,38.0767 -23.07683,56.5381 -3.72212,18.9826 -0.34644,0.1814 -6.64443,35.1353 0.0687,-0.014 -0.89414,4.561 -25.56733,55.3658 25.08834,7.343 15.39106,-41.957 13.3584,-40.8494 0.0988,-0.079 -0.015,0.01 12.52364,-41.9623 0.51355,-0.7002 18.60858,-50.2433 18.37843,-31.2005 0.23298,-1.6179 0.97587,-9.7587 -3.09026,-20.9812 -2.68282,-8.2924 z"
           id="path5052-2"
           inkscape:connector-curvature="0" />
        <path
           style="opacity:1;fill:#ffffff;fill-opacity:1;fill-rule:nonzero;stroke:none;stroke-width:0.1;stroke-linecap:round;stroke-linejoin:round;stroke-miterlimit:4;stroke-dasharray:none;stroke-dashoffset:0;stroke-opacity:1"
           d="m 285.5301,4667.5381 1.63178,4.8953 -6.5271,15.5019 c 0,0 2.85561,12.6462 3.26355,15.0939 0.40796,2.4476 5.30328,15.0939 5.30328,15.0939 l -15.09391,-26.5164 3.67149,-15.9098 z"
           id="path5054-8"
           inkscape:connector-curvature="0" />
        <path
           style="opacity:1;fill:#ffffff;fill-opacity:1;fill-rule:nonzero;stroke:none;stroke-width:0.1;stroke-linecap:round;stroke-linejoin:round;stroke-miterlimit:4;stroke-dasharray:none;stroke-dashoffset:0;stroke-opacity:1"
           d="m 307.55908,4682.632 -6.93504,26.1084 15.09392,48.1374 26.51634,50.177 c 0,0 -33.85934,-78.3252 -33.04344,-79.9569 0.81587,-1.6318 -4.48739,-15.094 -4.48739,-15.094 l 4.89532,-25.2925 z"
           id="path5056-8"
           inkscape:connector-curvature="0" />
        <path
           style="opacity:1;fill:#ffffff;fill-opacity:1;fill-rule:nonzero;stroke:none;stroke-width:0.1;stroke-linecap:round;stroke-linejoin:round;stroke-miterlimit:4;stroke-dasharray:none;stroke-dashoffset:0;stroke-opacity:1"
           d="m 347.62708,4987.2663 15.74583,-41.2632 -0.22696,-46.9005 -6.95697,-21.4214 3.45775,-5.4298 2.92229,5.5052 10.96147,35.1921 v 34.0382 l -6.92303,30.5768 -4.98231,13.98 z"
           id="path5058-9"
           inkscape:connector-curvature="0"
           sodipodi:nodetypes="ccccccccccc" />
        <path
           style="opacity:1;fill:#ffffff;fill-opacity:1;fill-rule:nonzero;stroke:none;stroke-width:0.1;stroke-linecap:round;stroke-linejoin:round;stroke-miterlimit:4;stroke-dasharray:none;stroke-dashoffset:0;stroke-opacity:1"
           d="m 537.23141,5006.7433 15.90982,-54.4605 0.40793,-15.9098 6.04491,-17.1216 2.92985,-15.9218 6.11916,-20.8052 10.60653,-66.9028 -1.63178,-52.6247 -5.7112,-22.8448 -3.26355,-15.5019 8.97475,7.343 6.5271,43.242 -0.81587,40.7944 -8.97476,62.0074 -9.79065,51.401 -9.79065,75.2656 z"
           id="path5060-2"
           inkscape:connector-curvature="0"
           sodipodi:nodetypes="ccccccccccccccccc" />
        <path
           style="opacity:1;fill:#ffffff;fill-opacity:1;fill-rule:nonzero;stroke:none;stroke-width:0.1;stroke-linecap:round;stroke-linejoin:round;stroke-miterlimit:4;stroke-dasharray:none;stroke-dashoffset:0;stroke-opacity:1"
           d="m 504.18797,4775.6432 c 0.61192,0.8159 33.04344,35.695 33.04344,35.695 l 19.98924,47.5255 -5.7112,-26.7203 -9.58669,-26.1084 z"
           id="path5062-8"
           inkscape:connector-curvature="0" />
        <path
           style="opacity:1;fill:#ffffff;fill-opacity:1;fill-rule:nonzero;stroke:none;stroke-width:0.1;stroke-linecap:round;stroke-linejoin:round;stroke-miterlimit:4;stroke-dasharray:none;stroke-dashoffset:0;stroke-opacity:1"
           d="m 569.10625,4725.1613 -0.28846,-13.2691 -4.03844,-21.6345 1.73075,-35.1921 5.48074,-21.0576 -8.94225,-29.1344 -4.3269,-27.9806 -15.28836,-6.6346 -23.0768,1.4423 -20.19218,16.7307 0.57693,6.3461 -7.78844,-9.5192 15.86531,-13.5576 31.73057,-7.7884 23.36525,11.5384 15.86528,61.7304 -5.7692,54.5189 3.46153,40.9613 z"
           id="path5064-8"
           inkscape:connector-curvature="0"
           sodipodi:nodetypes="ccccccccccccccccccc" />
        <path
           style="opacity:1;fill:#ffffff;fill-opacity:1;fill-rule:nonzero;stroke:none;stroke-width:0.1;stroke-linecap:round;stroke-linejoin:round;stroke-miterlimit:4;stroke-dasharray:none;stroke-dashoffset:0;stroke-opacity:1"
           d="m 331.99228,4656.7964 79.038,-13.2692 8.07687,-20.1922 2.88459,17.8845 55.38428,-11.5384 20.76911,6.9231 20.19218,61.1535 4.61535,14.9999 -5.76918,21.9229 -13.84607,19.0384 -28.26906,25.3844 -8.65379,-1.1538 46.73049,-51.9228 -6.34613,-42.1151 -21.34603,-44.9997 -19.03833,-2.8846 -76.73031,19.0383 z"
           id="path5066-8"
           inkscape:connector-curvature="0" />
        <path
           style="opacity:1;fill:#ffffff;fill-opacity:1;fill-rule:nonzero;stroke:none;stroke-width:0.1;stroke-linecap:round;stroke-linejoin:round;stroke-miterlimit:4;stroke-dasharray:none;stroke-dashoffset:0;stroke-opacity:1"
           d="m 494.68361,4761.7957 25.96139,3.4616 21.92294,28.269 -20.7691,-34.6152 -24.80756,-4.6153 -2.30767,9.2307 z"
           id="path5093-6"
           inkscape:connector-curvature="0" />
        <path
           style="opacity:1;fill:#ffffff;fill-opacity:1;fill-rule:nonzero;stroke:none;stroke-width:0.1;stroke-linecap:round;stroke-linejoin:round;stroke-miterlimit:4;stroke-dasharray:none;stroke-dashoffset:0;stroke-opacity:1"
           d="m 457.18384,4719.1037 14.9999,-22.4999 -1.15382,-21.346 -4.61536,20.1922 -14.99992,21.9229 z"
           id="path5095-8"
           inkscape:connector-curvature="0" />
        <path
           style="opacity:1;fill:#ffffff;fill-opacity:1;fill-rule:nonzero;stroke:none;stroke-width:0.1;stroke-linecap:round;stroke-linejoin:round;stroke-miterlimit:4;stroke-dasharray:none;stroke-dashoffset:0;stroke-opacity:1"
           d="m 443.91469,4716.796 -23.6537,-24.2306 -6.34612,-8.6538 10.96146,20.7691 15.57685,15.5768 z"
           id="path5097-3"
           inkscape:connector-curvature="0" />
        <path
           style="opacity:1;fill:#ffffff;fill-opacity:1;fill-rule:nonzero;stroke:none;stroke-width:0.1;stroke-linecap:round;stroke-linejoin:round;stroke-miterlimit:4;stroke-dasharray:none;stroke-dashoffset:0;stroke-opacity:1"
           d="m 523.52959,4687.95 21.92294,-2.3077 14.423,-10.3845 0.57693,-3.4615 -17.30759,9.2307 h -17.88452 z"
           id="path5099-8"
           inkscape:connector-curvature="0" />
        <path
           style="opacity:1;fill:#ffffff;fill-opacity:1;fill-rule:nonzero;stroke:none;stroke-width:0.1;stroke-linecap:round;stroke-linejoin:round;stroke-miterlimit:4;stroke-dasharray:none;stroke-dashoffset:0;stroke-opacity:1"
           d="m 447.95313,4740.4497 19.03835,40.3844 27.11521,17.3076 -19.61526,-19.6153 -21.34602,-39.8074 z"
           id="path5101-3"
           inkscape:connector-curvature="0" />
        <path
           style="opacity:1;fill:#ffffff;fill-opacity:1;fill-rule:nonzero;stroke:none;stroke-width:0.1;stroke-linecap:round;stroke-linejoin:round;stroke-miterlimit:4;stroke-dasharray:none;stroke-dashoffset:0;stroke-opacity:1"
           d="m 460.06843,4727.7575 29.4229,5.7692 20.7691,-9.2307 -26.53828,4.0384 -25.96139,-6.923 z"
           id="path5103-3"
           inkscape:connector-curvature="0" />
        <path
           style="opacity:1;fill:#ffffff;fill-opacity:1;fill-rule:nonzero;stroke:none;stroke-width:0.1;stroke-linecap:round;stroke-linejoin:round;stroke-miterlimit:4;stroke-dasharray:none;stroke-dashoffset:0;stroke-opacity:1"
           d="m 428.33787,4720.8344 -11.53841,1.7308 -29.4229,-12.6922 -36.34592,4.6153 h 35.1921 l 25.96136,9.8077 9.23072,4.6153 z"
           id="path5105-3"
           inkscape:connector-curvature="0" />
        <path
           style="opacity:1;fill:#ffffff;fill-opacity:1;fill-rule:nonzero;stroke:none;stroke-width:0.1;stroke-linecap:round;stroke-linejoin:round;stroke-miterlimit:4;stroke-dasharray:none;stroke-dashoffset:0;stroke-opacity:1"
           d="m 367.7613,4734.6805 52.49969,-4.6153 -10.96148,7.4999 z"
           id="path5107-8"
           inkscape:connector-curvature="0" />
        <path
           style="opacity:1;fill:#ffffff;fill-opacity:1;fill-rule:nonzero;stroke:none;stroke-width:0.1;stroke-linecap:round;stroke-linejoin:round;stroke-miterlimit:4;stroke-dasharray:none;stroke-dashoffset:0;stroke-opacity:1"
           d="m 301.03198,4655.2997 92.19529,-46.5055 64.45511,-35.0832 25.29251,2.4477 26.92428,32.6355 18.76543,42.4261 -7.29776,61.7445 -3.88572,-15.1187 1.39282,-49.8893 -19.5813,-42.4262 -17.94953,-21.2131 -14.68597,-4.8953 -33.45139,13.8701 -57.92801,31.8196 z"
           id="path5109-0"
           inkscape:connector-curvature="0"
           sodipodi:nodetypes="ccccccccccccccc" />
        <path
           style="opacity:1;fill:#ffffff;fill-opacity:1;fill-rule:nonzero;stroke:none;stroke-width:0.1;stroke-linecap:round;stroke-linejoin:round;stroke-miterlimit:4;stroke-dasharray:none;stroke-dashoffset:0;stroke-opacity:1"
           d="m 460.12891,4547.0703 -13.81055,0.2422 -0.64453,0.1563 -7.57227,0.9492 -23.66015,13.0547 -6.56446,4.9043 -0.008,0.043 -0.0312,-0.045 -15.45508,11.9628 -5.68164,4.3477 -40.79492,36.7148 -62.82422,32.6348 -25.29297,19.582 v 26.9239 l 37.53125,58.7441 36.23438,68.2832 5.35547,-5.125 -66.06641,-109.664 -8.1582,-20.3965 2.44726,-15.502 20.39649,-16.3183 55.48047,-29.3711 28.55664,-23.6602 26.77734,-23.9297 -0.0527,-0.043 13.93945,-11.6445 -0.11328,-0.168 0.13476,0.1699 21.21485,-12.1738 h 0.0391 l 18.67969,-3.9355 0.0332,-0.021 9.91211,-1.2832 10.60547,4.8945 13.05469,22.0293 17.94921,17.9492 -20.39648,-37.5312 -8.66797,-10.2149 -2.60156,-1.0234 -3.38867,-1.125 -0.53907,0.074 -2.2168,-0.1973 -3.82226,-0.2637 -0.0195,0.01 z"
           id="path5111-4"
           inkscape:connector-curvature="0"
           sodipodi:nodetypes="ccccccccccccccccccccccccccccccccccccccccccccc" />
        <path
           style="opacity:1;fill:#ffffff;fill-opacity:1;fill-rule:nonzero;stroke:none;stroke-width:0.1;stroke-linecap:round;stroke-linejoin:round;stroke-miterlimit:4;stroke-dasharray:none;stroke-dashoffset:0;stroke-opacity:1"
           d="m 569.74617,5073.2219 -6.02471,2.4906 -14.4908,31.5007 -14.46308,43.0798 7.34873,12.028 35.8824,10.581 4.72338,-1.9358 15.65354,-39.8305 2.90847,-1.8591 11.7208,-30.2465 -6.69831,-11.0988 -7.44383,-4.6167 z m -0.94826,6.2941 5.75069,1.955 -10.35071,18.4012 -6.90058,15.5261 1.1503,2.9902 -12.25242,33.7841 -6.14878,-2.0424 15.87086,-43.1276 z m 7.75447,2.898 17.41454,5.1093 -12.5631,33.6116 -20.14003,-8.1438 6.99371,-15.9391 z m 20.65587,6.1804 4.71669,2.1144 -27.64958,70.2625 -5.29173,-1.2815 11.47222,-35.4762 4.22876,-1.4638 z m 6.83106,6.1805 2.60231,3.0903 -27.48692,69.1239 c 0,0 -3.41553,-2.277 -2.92761,-3.4155 0.48795,-1.1385 27.81224,-68.7987 27.81222,-68.7987 z m -41.85426,23.6709 2.07009,0.9776 -11.08392,35.0098 -5.52852,-1.7727 z m 5.36781,2.6576 3.49765,0.6482 -10.41785,35.2791 -5.675,-2.1175 z m 7.1106,1.8853 2.53015,0.9199 -9.88227,35.2935 c 0,0 -4.90028,-1.0295 -4.55528,-1.7196 0.34503,-0.69 11.9074,-34.4938 11.9074,-34.4938 z m -33.6969,30.7071 33.23683,10.6955 4.02545,4.4853 -33.92726,-10.1205 z"
           id="path5332-7"
           inkscape:connector-curvature="0"
           sodipodi:nodetypes="ccccccccccccccccccccccccccccccccccccccsccccccccccccccccccccc" />
        <path
           style="opacity:1;fill:#ffffff;fill-opacity:1;fill-rule:nonzero;stroke:none;stroke-width:0.1;stroke-linecap:round;stroke-linejoin:round;stroke-miterlimit:4;stroke-dasharray:none;stroke-dashoffset:0;stroke-opacity:1"
           d="m 317.62222,4824.1344 -22.77024,26.3484 0.32529,5.5299 -19.84263,33.1795 -12.68628,15.2886 11.05983,20.4932 5.20463,2.6023 4.87933,6.9937 10.23929,1.6948 7.7549,-1.6008 11.1192,4.2974 4.3914,-3.9034 13.98743,-15.9392 12.19835,-14.8007 2.11437,-6.9937 18.21619,-25.0472 -4.55404,-30.5772 -23.74611,-11.7104 z m 2.60232,5.042 31.22776,12.8489 -13.33684,25.0472 -0.48794,7.807 -2.02883,11.1528 3.84102,12.5191 -30.11237,34.8801 -10.94597,-3.4907 -5.15583,2.0269 -7.15636,-2.1144 -3.74082,-7.4816 -7.6443,-3.7408 -5.20463,-13.1742 14.80067,-18.2162 16.75238,-28.7881 -0.48792,-4.7167 z m 34.15536,16.2644 4.06612,23.5835 -15.55132,25.1078 -3.93813,-12.0799 4.03823,-11.7268 z"
           id="path5358-6"
           inkscape:connector-curvature="0"
           sodipodi:nodetypes="cccccccccccccccccccccccccccccccccccccccccc" />
        <path
           style="opacity:1;fill:#ffffff;fill-opacity:1;fill-rule:nonzero;stroke:none;stroke-width:0.1;stroke-linecap:round;stroke-linejoin:round;stroke-miterlimit:4;stroke-dasharray:none;stroke-dashoffset:0;stroke-opacity:1"
           d="m 319.24867,4834.2183 -4.55405,4.5541 -6.34313,7.9696 28.62545,8.9454 6.34313,-12.5236 z m -0.65058,5.042 20.49322,6.5058 -3.25289,7.4817 -23.09553,-7.9696 z"
           id="path5365-8"
           inkscape:connector-curvature="0" />
        <path
           style="opacity:1;fill:#ffffff;fill-opacity:1;fill-rule:nonzero;stroke:none;stroke-width:0.1;stroke-linecap:round;stroke-linejoin:round;stroke-miterlimit:4;stroke-dasharray:none;stroke-dashoffset:0;stroke-opacity:1"
           d="m 303.3095,4926.2752 c 0,0 -4.0661,-14.9633 -2.76494,-15.7766 1.30115,-0.8132 10.08396,-12.1983 10.08396,-12.1983 l -6.99373,13.9874 z"
           id="path5370-9"
           inkscape:connector-curvature="0" />
        <path
           style="opacity:1;fill:#ffffff;fill-opacity:1;fill-rule:nonzero;stroke:none;stroke-width:0.1;stroke-linecap:round;stroke-linejoin:round;stroke-miterlimit:4;stroke-dasharray:none;stroke-dashoffset:0;stroke-opacity:1"
           d="m 295.50256,4924.6487 -3.41552,-15.9392 10.24659,-12.1983 -6.66841,13.6621 z"
           id="path5372-0"
           inkscape:connector-curvature="0" />
        <path
           style="opacity:1;fill:#ffffff;fill-opacity:1;fill-rule:nonzero;stroke:none;stroke-width:0.1;stroke-linecap:round;stroke-linejoin:round;stroke-miterlimit:4;stroke-dasharray:none;stroke-dashoffset:0;stroke-opacity:1"
           d="m 287.69571,4921.5585 -4.3914,-16.5897 11.71041,-11.2225 -7.96959,13.8248 z"
           id="path5374-6"
           inkscape:connector-curvature="0" />
        <path
           style="opacity:1;fill:#ffffff;fill-opacity:1;fill-rule:nonzero;stroke:none;stroke-width:0.1;stroke-linecap:round;stroke-linejoin:round;stroke-miterlimit:4;stroke-dasharray:none;stroke-dashoffset:0;stroke-opacity:1"
           d="m 279.56339,4918.6309 -4.71668,-14.6381 10.89718,-11.873 -7.15636,12.1983 z"
           id="path5376-8"
           inkscape:connector-curvature="0" />
        <path
           style="opacity:1;fill:#ffffff;fill-opacity:1;fill-rule:nonzero;stroke:none;stroke-width:0.1;stroke-linecap:round;stroke-linejoin:round;stroke-miterlimit:4;stroke-dasharray:none;stroke-dashoffset:0;stroke-opacity:1"
           d="m 305.4434,4855.9411 0.65058,7.1564 -15.28859,24.8846 24.23405,8.7828 16.75238,-22.9328 0.48792,-8.7829 z m 3.90347,9.2708 18.37885,7.1563 -6.83108,9.1081 -16.91503,-6.5057 z m -7.48167,11.873 18.05358,6.3432 -6.34315,10.0839 -17.07769,-6.9937 z"
           id="path5378-7"
           inkscape:connector-curvature="0"
           sodipodi:nodetypes="ccccccccccccccccc" />
        <path
           style="opacity:1;fill:#ffffff;fill-opacity:1;fill-rule:nonzero;stroke:none;stroke-width:0.1;stroke-linecap:round;stroke-linejoin:round;stroke-miterlimit:4;stroke-dasharray:none;stroke-dashoffset:0;stroke-opacity:1"
           d="m 309.00207,4913.5889 22.69132,-30.0219 7.05629,-12.3351 2.36831,4.6758 -3.99476,7.6246 -24.54298,33.1468 0.81322,16.1018 -2.92761,1.4638 z"
           id="path5386-9"
           inkscape:connector-curvature="0"
           sodipodi:nodetypes="ccccccccc" />
      </g>
      <g
         id="g4608"
         style="fill:#c9c9c9;fill-opacity:1;stroke:none">
        <path
           style="display:inline;opacity:1;fill:#c9c9c9;fill-opacity:1;fill-rule:nonzero;stroke:none;stroke-width:0.1;stroke-linecap:round;stroke-linejoin:round;stroke-miterlimit:4;stroke-dasharray:none;stroke-dashoffset:0;stroke-opacity:1"
           d="m 1496.4653,661.98945 -101.8874,11.39438 -1.7546,-25.62292 65.3489,-44.60502 -68.0149,7.58515 -1.81,-21.22767 107.2594,-11.24432 v 25.86463 l -68.5938,48.7187 70.6143,-12.56196 z"
           id="path4784-0"
           inkscape:connector-curvature="0"
           sodipodi:nodetypes="ccccccccccc" />
        <path
           style="display:inline;opacity:1;fill:#c9c9c9;fill-opacity:1;fill-rule:nonzero;stroke:none;stroke-width:0.1;stroke-linecap:round;stroke-linejoin:round;stroke-miterlimit:4;stroke-dasharray:none;stroke-dashoffset:0;stroke-opacity:1"
           d="m 1416.516,489.98237 -21.8566,11.17715 -4.9455,25.38738 5.5911,26.85612 72.6818,13.75952 28.0307,-10.83416 6.3169,-34.15955 -25.0462,-27.04943 z m 4.5753,20.88349 26.012,-0.54286 26.4321,4.41397 7.8884,14.57718 -3.6987,11.95476 -17.7276,3.44331 -42.4446,-6.93568 -7.305,-7.69562 2.597,-11.86333 z"
           id="path4786-3"
           inkscape:connector-curvature="0" />
        <path
           style="display:inline;opacity:1;fill:#c9c9c9;fill-opacity:1;fill-rule:nonzero;stroke:none;stroke-width:0.1;stroke-linecap:round;stroke-linejoin:round;stroke-miterlimit:4;stroke-dasharray:none;stroke-dashoffset:0;stroke-opacity:1"
           d="m 1438.3028,387.57776 87.4107,63.22523 33.9067,-55.96391 -22.8309,-15.12971 -22.2023,35.10276 -64.0827,-45.64648 z"
           id="path4788-3"
           inkscape:connector-curvature="0" />
        <path
           style="display:inline;opacity:1;fill:#c9c9c9;fill-opacity:1;fill-rule:nonzero;stroke:none;stroke-width:0.1;stroke-linecap:round;stroke-linejoin:round;stroke-miterlimit:4;stroke-dasharray:none;stroke-dashoffset:0;stroke-opacity:1"
           d="m 1523.706,283.26035 -24.1554,29.65549 3.4176,23.79005 39.4232,40.53637 24.9531,2.84575 25.2825,-20.89096 -5.2317,-28.18912 -23.9705,-28.44891 -24.6921,-21.58783 z m -1.4028,33.40838 7.9095,-7.07585 12.1412,2.98114 21.2872,19.35236 1.2615,21.57317 -11.27,1.71849 -27.8065,-22.25631 z"
           id="path4790-3"
           inkscape:connector-curvature="0" />
        <path
           style="display:inline;opacity:1;fill:#c9c9c9;fill-opacity:1;fill-rule:nonzero;stroke:none;stroke-width:0.1;stroke-linecap:round;stroke-linejoin:round;stroke-miterlimit:4;stroke-dasharray:none;stroke-dashoffset:0;stroke-opacity:1"
           d="m 1577.5476,243.51887 -4.3548,5.45983 -9.2695,16.55112 0.4162,16.05652 13.0205,27.36105 17.5787,25.45612 25.5864,11.8321 28.5831,-12.76169 13.6052,-20.41952 -1.2996,-23.90891 -8.4212,-16.02177 -0.6995,0.348 -39.3679,22.92239 10.0888,6.61775 14.1524,-4.9731 3.1596,12.16776 -16.3035,10.58333 -14.8672,-6.67568 -12.9302,-24.78681 -7.5997,-19.81929 19.2681,-12.50778 13.2351,9.84116 17.4754,-13.88388 -17.8468,-15.89542 -19.9249,-3.91948 -23.2848,10.37621 z"
           id="path4792-7"
           inkscape:connector-curvature="0" />
        <path
           style="display:inline;opacity:1;fill:#c9c9c9;fill-opacity:1;fill-rule:nonzero;stroke:none;stroke-width:0.1;stroke-linecap:round;stroke-linejoin:round;stroke-miterlimit:4;stroke-dasharray:none;stroke-dashoffset:0;stroke-opacity:1"
           d="m 1707.3173,210.57987 -10.4078,-10.66342 -13.8918,-0.38602 -15.6729,6.98765 -11.7977,18.24855 c 0,0 0.5625,13.39574 1.5545,15.29283 0.992,1.89715 8.2234,13.41616 8.2234,13.41616 l 18.2835,4.93453 21.747,2.3181 10.8504,7.84339 0.6545,14.26812 -11.261,5.12158 -16.683,-0.92056 -3.3213,-7.12144 -17.4047,8.29596 15.6985,20.78132 25.0453,-0.6145 21.3788,-9.16607 6.4081,-16.23547 0.2121,-23.46427 -13.1256,-19.71093 -13.3174,-3.90757 -16.5721,1.41817 -16.6155,-0.97486 -0.066,-12.44725 10.9446,-3.70986 6.196,7.22882 19.9487,-8.82083 z"
           id="path4794-3"
           inkscape:connector-curvature="0"
           sodipodi:nodetypes="cccccsccccccccccccccccccccccc" />
        <path
           style="display:inline;opacity:1;fill:#c9c9c9;fill-opacity:1;fill-rule:nonzero;stroke:none;stroke-width:0.1;stroke-linecap:round;stroke-linejoin:round;stroke-miterlimit:4;stroke-dasharray:none;stroke-dashoffset:0;stroke-opacity:1"
           d="m 1805.0676,291.72911 14.199,-111.97631 20.3916,3.17491 28.6778,82.24234 11.8782,-76.18596 22.3618,4.32616 -18.4268,108.35858 -26.456,-4.50858 -24.5553,-65.09862 -5.6614,61.63391 z"
           id="path4802-2"
           inkscape:connector-curvature="0"
           sodipodi:nodetypes="ccccccccccc" />
        <path
           style="display:inline;opacity:1;fill:#c9c9c9;fill-opacity:1;fill-rule:nonzero;stroke:none;stroke-width:0.1;stroke-linecap:round;stroke-linejoin:round;stroke-miterlimit:4;stroke-dasharray:none;stroke-dashoffset:0;stroke-opacity:1"
           d="m 1952.1742,215.88902 -30.4674,5.84762 c 0,0 -13.1872,20.68832 -14.9423,25.75478 -1.7551,5.06636 -8.5912,27.19643 -8.7447,33.23279 -0.1535,6.0364 1.4354,25.82339 1.4354,25.82339 l 17.0164,15.99732 20.7903,4.71073 32.6351,-18.10361 17.5595,-37.30539 -6.478,-33.03777 -5.4672,-13.38238 -20.5813,-8.30567 z m -9.4247,29.54078 16.667,4.34586 3.7274,16.21863 -6.7309,20.49205 -13.8084,13.19431 c 0,10e-6 -12.866,-1.01716 -13.5881,-1.18079 -0.7221,-0.16362 -7.973,-9.20886 -7.973,-9.20886 0,0 2.5405,-17.07605 2.9496,-18.88139 0.409,-1.80535 7.6844,-17.99838 7.6844,-17.99838 z"
           id="path4804-6"
           inkscape:connector-curvature="0" />
        <path
           style="display:inline;opacity:1;fill:#c9c9c9;fill-opacity:1;fill-rule:nonzero;stroke:none;stroke-width:0.1;stroke-linecap:round;stroke-linejoin:round;stroke-miterlimit:4;stroke-dasharray:none;stroke-dashoffset:0;stroke-opacity:1"
           d="m 2004.7445,347.48119 103.9882,-42.52165 c 17.5785,26.32539 2.7506,5.13747 7.4305,11.34837 l -28.0335,43.64381 53.7948,-9.63786 9.4342,12.04985 -73.5112,83.38363 -15.2007,-17.33598 47.9191,-51.4854 -47.6125,7.21102 -6.2768,-8.59887 26.6285,-39.10797 -66.4138,30.02457 z"
           id="path4806-5"
           inkscape:connector-curvature="0"
           sodipodi:nodetypes="cccccccccccccc"
           inkscape:transform-center-x="-33.419432"
           inkscape:transform-center-y="11.354409" />
        <path
           style="display:inline;opacity:1;fill:#c9c9c9;fill-opacity:1;fill-rule:nonzero;stroke:none;stroke-width:0.1;stroke-linecap:round;stroke-linejoin:round;stroke-miterlimit:4;stroke-dasharray:none;stroke-dashoffset:0;stroke-opacity:1"
           d="m 2203.4979,471.14104 -5.3413,-18.42967 c 0,0 -112.2312,-7.05615 -116.4218,-8.93839 -4.1905,-1.88226 5.2424,27.99232 5.2424,27.99232 l 38.5373,1.06572 6.2678,21.07827 -32.392,27.46961 6.5404,23.40346 z m -36.8356,3.18128 -16.9734,13.65543 c 0,0 -4.032,-13.45416 -4.3821,-14.7064 -0.35,-1.25224 19.6532,-1.17293 19.6532,-1.17293 z"
           id="path4808-2"
           inkscape:connector-curvature="0"
           sodipodi:nodetypes="ccsccccccccscc" />
        <path
           style="display:inline;opacity:1;fill:#c9c9c9;fill-opacity:1;fill-rule:nonzero;stroke:none;stroke-width:0.1;stroke-linecap:round;stroke-linejoin:round;stroke-miterlimit:4;stroke-dasharray:none;stroke-dashoffset:0;stroke-opacity:1"
           d="m 2182.4591,592.52098 2.9665,18.84769 13.0748,-2.45548 16.021,-12.65188 3.0221,-9.84513 -3.4226,-20.07957 -8.4867,-16.35526 -19.9133,-7.41581 -16.8585,2.90467 -15.914,8.5108 -9.0148,19.26836 0.1434,16.98524 -3.927,6.83808 -5.7921,3.27044 -10.8366,-9.0812 -0.613,-14.94347 2.7873,-8.18824 7.5585,-1.17517 -4.0909,-18.30652 -19.6693,6.95699 -3.8882,13.93844 -4.7427,17.20295 7.2701,21.05261 10.4569,8.39306 16.396,7.67843 19.9494,-4.67527 10.1245,-11.01098 0.2792,-14.03304 0.5068,-12.97902 7.4656,-9.70148 12.1925,-4.83887 8.4769,9.38332 -2.2133,11.88156 z"
           id="path4810-6"
           inkscape:connector-curvature="0"
           sodipodi:nodetypes="cccccccccccccccccccccccccccccccccc" />
        <path
           style="display:inline;opacity:1;fill:#c9c9c9;fill-opacity:1;fill-rule:nonzero;stroke:none;stroke-width:0.1;stroke-linecap:round;stroke-linejoin:round;stroke-miterlimit:4;stroke-dasharray:none;stroke-dashoffset:0;stroke-opacity:1"
           d="m 2224.1528,625.00963 -15.3249,-4.8869 -7.932,33.03491 -89.6153,-20.95691 -5.3858,21.02472 90.0768,19.06821 -6.4682,33.76943 17.6307,1.72082 z"
           id="path4812-5"
           inkscape:connector-curvature="0"
           sodipodi:nodetypes="ccccccccc" />
        <path
           style="display:inline;opacity:1;fill:#c9c9c9;fill-opacity:1;fill-rule:nonzero;stroke:none;stroke-width:0.1;stroke-linecap:round;stroke-linejoin:round;stroke-miterlimit:4;stroke-dasharray:none;stroke-dashoffset:0;stroke-opacity:1"
           d="m 2194.2541,715.26707 -96.1004,-29.3584 -17.2739,57.1943 20.7586,4.83494 11.1458,-36.38997 19.3497,5.27313 -3.8314,18.4399 21.3369,5.59175 5.832,-16.35705 21.5943,4.05184 -10.6352,34.83397 20.7342,7.81394 14.1718,-53.89515 z"
           id="path4814-8"
           inkscape:connector-curvature="0"
           sodipodi:nodetypes="cccccccccccccc" />
        <path
           style="display:inline;opacity:1;fill:#c9c9c9;fill-opacity:1;fill-rule:nonzero;stroke:none;stroke-width:0.1;stroke-linecap:round;stroke-linejoin:round;stroke-miterlimit:4;stroke-dasharray:none;stroke-dashoffset:0;stroke-opacity:1"
           d="m 2152.3912,857.86257 29.6203,-54.08658 -22.5377,-12.23478 -76.2884,-41.41378 -9.039,18.53383 31.2488,16.51818 -6.765,12.65862 -38.9218,-3.85941 -12.4268,20.60736 53.7619,3.22147 4.6944,21.75969 27.0411,16.02737 z m -7.1838,-22.67183 -20.1778,-4.51049 -5.9885,-16.13589 9.4232,-16.28478 29.3419,14.48103 z"
           id="path4816-7"
           inkscape:connector-curvature="0"
           sodipodi:nodetypes="ccccccccccccccccccc" />
        <path
           style="display:inline;opacity:1;fill:#c9c9c9;fill-opacity:1;fill-rule:nonzero;stroke:none;stroke-width:0.1;stroke-linecap:round;stroke-linejoin:round;stroke-miterlimit:4;stroke-dasharray:none;stroke-dashoffset:0;stroke-opacity:1"
           d="m 2067.7921,893.79208 12.4216,-2.52247 11.2124,7.82159 1.4277,9.25513 -12.3744,6.76019 -10.1057,-3.59572 -11.5178,12.31315 -4.7142,4.82053 22.9074,11.3996 21.0701,-10.83036 c 0,0 19.3807,-19.8177 19.0952,-21.66875 -0.2855,-1.85102 -5.8011,-21.39118 -6.3485,-22.97436 -0.5474,-1.58324 -14.9795,-13.0773 -14.9795,-13.0773 l -19.9497,-7.45935 -22.3974,10.58033 -20.1111,1.81357 -10.1708,-9.4225 6.518,-9.34374 11.2736,-10.45625 11.4448,4.90524 15.1785,-16.59223 -20.5325,-12.22074 c 0,0 -17.9039,9.73555 -18.9515,10.80674 -1.0475,1.07122 -15.4167,18.97887 -15.4167,18.97887 l -12.2325,19.47314 9.1645,14.20168 7.784,9.1842 17.2953,6.95914 11.6299,-2.24869 z"
           id="path4818-9"
           inkscape:connector-curvature="0" />
      </g>
    </g>
  </g>
</svg>
