<?xml version="1.0" encoding="UTF-8" standalone="no"?>
<!-- Created with Inkscape (http://www.inkscape.org/) -->

<svg
   xmlns:dc="http://purl.org/dc/elements/1.1/"
   xmlns:cc="http://creativecommons.org/ns#"
   xmlns:rdf="http://www.w3.org/1999/02/22-rdf-syntax-ns#"
   xmlns:svg="http://www.w3.org/2000/svg"
   xmlns="http://www.w3.org/2000/svg"
   xmlns:sodipodi="http://sodipodi.sourceforge.net/DTD/sodipodi-0.dtd"
   xmlns:inkscape="http://www.inkscape.org/namespaces/inkscape"
   width="293"
   height="465"
   id="svg3076"
   version="1.1"
   inkscape:version="0.92.2 (5c3e80d, 2017-08-06)"
   sodipodi:docname="blue-crow-tall.svg"
   inkscape:export-xdpi="61.433449"
   inkscape:export-ydpi="61.433449">
  <defs
     id="defs3078" />
  <sodipodi:namedview
     id="base"
     pagecolor="#ffffff"
     bordercolor="#666666"
     borderopacity="1.0"
     inkscape:pageopacity="0.0"
     inkscape:pageshadow="2"
     inkscape:zoom="1"
     inkscape:cx="198.81424"
     inkscape:cy="192.19187"
     inkscape:document-units="px"
     inkscape:current-layer="layer1"
     showgrid="false"
     units="cm"
     inkscape:window-width="1174"
     inkscape:window-height="874"
     inkscape:window-x="432"
     inkscape:window-y="115"
     inkscape:window-maximized="0"
     fit-margin-top="0"
     fit-margin-left="0"
     fit-margin-right="0"
     fit-margin-bottom="0" />
  <metadata
     id="metadata3081">
    <rdf:RDF>
      <cc:Work
         rdf:about="">
        <dc:format>image/svg+xml</dc:format>
        <dc:type
           rdf:resource="http://purl.org/dc/dcmitype/StillImage" />
        <dc:title></dc:title>
      </cc:Work>
    </rdf:RDF>
  </metadata>
  <g
     inkscape:label="Layer 1"
     inkscape:groupmode="layer"
     id="layer1"
     transform="translate(0.43213272,-633.14581)">
    <rect
       style="opacity:1;fill:#007cc3;fill-opacity:1;fill-rule:nonzero;stroke:none;stroke-width:0.38100001;stroke-linecap:round;stroke-linejoin:round;stroke-miterlimit:4;stroke-dasharray:none;stroke-dashoffset:0;stroke-opacity:1"
       id="rect4187"
       width="293"
       height="465"
       x="-0.43213272"
       y="633.14581"
       rx="1.70144"
       ry="1.70144" />
    <path
       style="fill:#000000;fill-opacity:1;stroke:none"
       d="m 149.74907,739.41804 c 0,0 -4.6294,-8.96866 -4.93803,-10.2057 -0.30868,-1.23713 -2.77767,-13.91678 -2.77767,-13.91678 l 3.0863,-5.5668 6.78989,-10.20557 9.87612,-7.73162 2.46905,-0.92777 23.76452,-8.96864 2.1604,-2.16487 -2.46903,-3.71111 -3.39493,-1.85555 -6.2301,-1.59938 -15.60782,-1.59933 -12.11139,0.1063 -8.33301,1.85558 -7.40715,-2.78331 -9.25891,-1.2371 -13.5797,-0.30926 -6.78989,-0.30931 -11.419281,4.3297 -17.283292,20.10209 -2.160417,7.73156 -1.234522,6.80373 -5.863941,12.67975 -3.703632,12.06122 -1.851725,12.98905 0,2.78338 -8.950289,13.60754 -4.938087,10.20576 0,14.53523 1.54314,29.99831 2.777685,10.82464 5.555349,9.89624 7.098467,6.49457 3.086283,12.67942 11.727979,25.97681 13.888388,16.69961 0.925796,0.92784 4.938128,25.05013 -16.974629,30.92651 -5.328834,4.13057 -3.99455,3.23382 -6.850419,-0.18879 -3.821281,1.97243 -4.635412,0.197 -2.80069,2.79304 -5.996766,-0.9029 -5.929879,-0.2879 -4.574704,3.60791 -0.658718,5.36036 3.040591,-3.4417 5.115579,-1.48958 0.535232,4.91979 8.083477,-2.74585 4.635359,-0.19699 8.178041,0.97739 c 0,0 7.089967,-0.46356 8.317256,-0.59715 1.227291,-0.13338 8.758149,0.60248 8.758149,0.60248 l 5.522761,-0.60084 2.928634,1.23718 3.92179,-1.0488 4.256284,2.02619 6.13642,-0.66753 0.7924,-4.13036 -0.23415,-2.15239 4.18941,1.41119 3.40269,2.74071 2.20889,3.18212 -0.12805,-4.03166 -2.68275,-4.68421 c 0,0 -1.83522,-2.60097 -3.06251,-2.46718 -1.22725,0.13338 -5.99685,-0.90372 -5.99685,-0.90372 l -3.27461,1.29032 -3.575805,-1.47891 -3.514426,1.93939 -3.235632,-1.20496 -1.561617,-2.93976 -2.248186,-0.6899 2.415958,-6.29979 5.555361,-7.75079 7.407117,-12.37056 6.48127,-7.73202 2.46902,-3.09223 c 0,0 3.08629,-4.63845 3.08629,-5.87563 0,-1.23759 0.61729,-14.22582 0.61729,-14.22582 l -4.0122,-8.35026 -1.85177,-6.80414 35.80109,8.66006 2.16043,0 30.55439,21.95734 4.32081,5.56618 1.5431,21.95517 -0.61725,4.94831 -2.16044,4.02058 -1.54488,2.47436 -1.33455,3.47165 -0.91113,2.32107 -5.67047,1.75799 -5.76404,-1.03977 -3.49286,-0.43114 -6.41421,0.92917 -2.6997,2.89052 -1.03935,3.58882 0.83765,3.62823 1.34487,-3.63192 1.82762,-2.4524 1.78873,-0.56842 0.13796,3.10475 2.40413,1.5259 4.9708,-2.28208 2.44354,-0.35419 0.79324,3.32248 7.46365,-0.1457 5.05942,-1.67078 4.14799,0.64865 6.0251,0.68867 2.09426,-0.61233 1.65522,-1.48917 2.6752,5.54874 0.0293,-6.25444 -2.59136,-7.12368 -3.75897,-2.26731 0.63359,-1.86388 -2.77763,-5.25673 0.30867,-20.10042 15.43161,18.24701 20.36961,16.0819 c 0,0 13.88834,4.94872 15.12281,4.94872 1.23454,0 10.80207,-1.23759 10.80207,-1.23759 l 6.17256,-10.20545 -4.62938,-13.91678 1.85177,-4.63968 -9.8762,-12.98783 -20.92162,-21.30282 -5.00328,-16.73679 0.30875,-11.4429 -4.62936,-12.06161 -5.24674,-9.58632 3.08631,-9.58633 -2.46899,-13.91621 -10.52508,-23.6913 3.8879,-0.65613 -6.52496,-11.29566 4.23926,-1.34567 -7.45221,-12.14825 3.13448,-1.68974 -5.58588,-9.17074 1.82117,-1.01958 -6.75928,-5.47489 2.46898,-1.28304 -17.59184,-12.32456 z"
       id="path5892"
       inkscape:connector-curvature="0"
       sodipodi:nodetypes="csccccccccccccccccccccccccccccccccccccccccccccccccccccccscccccccccccccsccccccccccccscccccccccccccccccccccccccccccccccccccccccccscccccccccccccccccccccccc" />
    <g
       id="g4231"
       transform="matrix(1.585845,0,0,1.585845,3.2280403,-504.30251)">
      <g
         transform="matrix(0.42314036,0,0,0.42314036,165.70259,611.06077)"
         style="fill:#ffffff;fill-opacity:1;stroke:#000000;stroke-opacity:1"
         id="g5611">
        <g
           style="fill:#ffffff;fill-opacity:1;stroke:none"
           id="g4263"
           transform="matrix(0.88756457,0,0,0.88756457,-499.06371,442.04081)">
          <path
             inkscape:connector-curvature="0"
             id="path3167"
             transform="matrix(1.1266786,0,0,1.1266786,-65.501071,-37.555679)"
             d="m 218.09375,367.25 -0.625,82.46875 12.09375,2.4375 1.21875,-28.5 c 0,0 14.54003,25.44933 15.75,27.875 1.21002,2.42565 21.15625,-0.59375 21.15625,-0.59375 0,0 -26.67607,-41.42207 -24.1875,-41.25 l 17.53125,1.21875 L 269.5,400 l -2.40625,-20 -15.125,-11.53125 -33.875,-1.21875 z m 18.5,13.34375 12.6875,0 6.0625,6.65625 -6.0625,9.71875 -6.65625,1.8125 -6.03125,-8.5 0,-9.6875 z"
             style="fill:#ffffff;fill-opacity:1;stroke:none" />
          <path
             inkscape:connector-curvature="0"
             id="path3171"
             d="m 243.59851,408.33247 c 1.36329,2.73294 0.68166,61.49105 0.68166,61.49105 0,0 25.22069,2.73292 23.8574,0 -1.36329,-2.73294 0,-58.75811 0,-58.75811 z"
             style="fill:#ffffff;fill-opacity:1;stroke:none" />
          <path
             inkscape:connector-curvature="0"
             id="path3173"
             d="m 244.9618,393.30132 14.31446,8.19881 8.17968,-11.61498 -0.68166,-12.29821 -14.31445,-2.04969 -10.22458,7.51557 z"
             style="fill:#ffffff;fill-opacity:1;stroke:none" />
          <path
             inkscape:connector-curvature="0"
             id="path3175"
             d="m 284.49695,394.66779 -0.68167,20.49702 10.22461,19.81379 5.45314,14.34789 -25.22069,4.78265 c 0,0 -3.40821,17.76408 1.36326,17.76408 4.7715,0 29.31052,0.68322 29.31052,0.68322 l 14.31446,-15.03114 0.68165,-16.39762 -11.58789,-19.13054 -2.04492,-12.98144 11.58789,-8.1988 4.77148,8.88204 12.95115,2.0497 -1.36329,-32.79522 -23.85739,-0.68324 -17.041,6.83234 z"
             style="fill:#ffffff;fill-opacity:1;stroke:none" />
          <path
             sodipodi:nodetypes="ccccccccccccc"
             inkscape:connector-curvature="0"
             id="path3177"
             d="m 343.118,382.36958 -0.68166,87.45394 65.50596,2.0497 -4.77147,-15.03114 -38.92201,-1.36649 -1.36326,-13.66466 33.46887,-0.68325 0.68163,-15.03111 -23.92589,-2.73296 -2.72658,-26.64612 33.46887,-1.36646 -2.72655,-15.03115 z"
             style="fill:#ffffff;fill-opacity:1;stroke:none" />
          <path
             inkscape:connector-curvature="0"
             id="path3179"
             d="m 414.7587,378.7533 4.08984,84.03775 23.85742,8.88207 19.08593,-6.1491 4.08984,-8.19881 0.68163,12.98144 c 0,0 14.31448,6.1491 13.63283,0 -0.68167,-6.14911 2.04494,-92.23659 -2.72659,-92.91982 -4.77147,-0.68323 -23.85739,2.04971 -23.85739,2.04971 l 5.45313,51.92578 -8.17969,10.24849 -10.90626,2.73296 c 0,0 -6.13474,-11.615 -6.13474,-14.34792 0,-2.73292 1.36326,-51.24255 1.36326,-51.24255 z"
             style="fill:#ffffff;fill-opacity:1;stroke:none" />
          <path
             inkscape:connector-curvature="0"
             id="path3181"
             transform="matrix(1.1266786,0,0,1.1266786,-65.501071,-37.555679)"
             d="m 518.21875,367.6875 c -3.02501,0 -29.65625,1.8125 -29.65625,1.8125 0,3.63849 3.03125,83.09375 3.03125,83.09375 0,0 19.51377,1.38847 17.09375,-2.25 -2.42,-3.63849 -4.0625,-36.5625 -4.0625,-36.5625 l 17.84375,-0.625 13.3125,-6.0625 6.625,-13.34375 -8.46875,-20 c 0,0 -12.69377,-6.0625 -15.71875,-6.0625 z m -8.40625,5.78125 5.78125,9.875 13.03125,-2.8125 -8.0625,9.34375 7.40625,13.375 -14.03125,-6.34375 -10.71875,3.5 2.625,-10.53125 -7.46875,-5.3125 9.875,-1.0625 1.5625,-10.03125 z"
             style="fill:#ffffff;fill-opacity:1;stroke:none" />
          <g
             style="fill:#ffffff;fill-opacity:1;stroke:none"
             transform="matrix(0.28115503,0,0,0.28115503,795.46983,181.97574)"
             id="g5674" />
        </g>
      </g>
      <g
         transform="matrix(0.42549516,0,0,0.42549516,166.51184,613.17187)"
         style="fill:#ffffff;fill-opacity:1;stroke:none"
         id="g5436">
        <g
           style="fill:#ffffff;fill-opacity:1;stroke:none"
           id="g4045"
           transform="translate(-490.18795,352.90873)">
          <rect
             style="fill:#ffffff;fill-opacity:1;fill-rule:evenodd;stroke:none"
             id="rect3664"
             width="3.9999981"
             height="3.9999981"
             x="250"
             y="528.36218" />
          <rect
             y="520.36218"
             x="250"
             height="3.9999981"
             width="3.9999981"
             id="rect3666"
             style="fill:#ffffff;fill-opacity:1;fill-rule:evenodd;stroke:none" />
        </g>
        <g
           style="fill:#ffffff;fill-opacity:1;stroke:none"
           id="g4094"
           transform="translate(-512.18795,360.90873)">
          <path
             inkscape:connector-curvature="0"
             id="rect3692"
             transform="translate(-45.01219,47.79899)"
             d="m 277,460.5625 0,12 0,4 0,4 4,0 0,-4 0,-4 12,0 0,-12 -16,0 z"
             style="fill:#ffffff;fill-opacity:1;fill-rule:evenodd;stroke:none" />
        </g>
        <g
           style="fill:#ffffff;fill-opacity:1;stroke:none"
           id="g4049"
           transform="translate(-488.18795,352.90873)">
          <path
             inkscape:connector-curvature="0"
             id="rect3748"
             transform="translate(-69.01219,55.79899)"
             d="m 333,460.5625 0,4 -2,0 0,4 -2,0 0,4 -2,0 0,4 -2,0 0,4 4,0 0,-4 2,0 0,-4 2,0 0,-4 2,0 0,-4 2,0 0,-4 -4,0 z"
             style="fill:#ffffff;fill-opacity:1;fill-rule:evenodd;stroke:none" />
        </g>
        <g
           style="fill:#ffffff;fill-opacity:1;stroke:none"
           id="g4056"
           transform="translate(-486.18795,352.90873)">
          <path
             inkscape:connector-curvature="0"
             id="rect3758"
             transform="translate(-71.01219,55.79899)"
             d="m 345,460.5625 0,4 -2,0 0,4 -2,0 0,4 -2,0 0,4 -2,0 0,4 4,0 0,-4 2,0 0,-4 2,0 0,-4 2,0 0,-4 2,0 0,-4 -4,0 z"
             style="fill:#ffffff;fill-opacity:1;fill-rule:evenodd;stroke:none" />
        </g>
        <g
           style="fill:#ffffff;fill-opacity:1;stroke:none"
           id="g4191"
           transform="translate(-516.18795,388.90873)">
          <path
             inkscape:connector-curvature="0"
             id="rect3802"
             transform="translate(-41.01219,19.79899)"
             d="m 413,460.5625 0,4 0,4 0,4 0,4 0,4 4,0 4,0 4,0 4,0 0,-4 -4,0 -4,0 -4,0 0,-4 4,0 4,0 0,-4 -4,0 -4,0 0,-4 4,0 4,0 4,0 0,-4 -4,0 -4,0 -4,0 -4,0 z"
             style="fill:#ffffff;fill-opacity:1;fill-rule:evenodd;stroke:none" />
        </g>
        <g
           style="fill:#ffffff;fill-opacity:1;stroke:none"
           id="g4080"
           transform="translate(-486.18795,352.90873)">
          <path
             inkscape:connector-curvature="0"
             id="rect3768"
             transform="translate(-71.01219,55.79899)"
             d="m 373,460.5625 0,4 6,0 0,4 0,4 0,4 -6,0 0,4 16,0 0,-4 -6,0 0,-4 0,-4 0,-4 6,0 0,-4 -6,0 -4,0 -6,0 z"
             style="fill:#ffffff;fill-opacity:1;fill-rule:evenodd;stroke:none" />
        </g>
        <g
           style="fill:#ffffff;fill-opacity:1;stroke:none"
           id="g3996"
           transform="translate(-470.18795,352.90873)">
          <path
             inkscape:connector-curvature="0"
             id="rect3832"
             transform="translate(-87.01219,55.79899)"
             d="m 433,460.5625 0,4 0,4 0,4 0,4 0,4 4,0 8,0 4,0 0,-4 0,-4 0,-4 0,-4 0,-4 -4,0 0,4 0,4 0,4 0,4 -8,0 0,-4 0,-4 0,-4 0,-4 -4,0 z"
             style="fill:#ffffff;fill-opacity:1;fill-rule:evenodd;stroke:none" />
        </g>
        <rect
           style="fill:#ffffff;fill-opacity:1;fill-rule:evenodd;stroke:none"
           id="rect3874"
           width="5.9999971"
           height="5.9999971"
           x="-84.18795"
           y="883.27094" />
        <path
           inkscape:connector-curvature="0"
           id="rect3876"
           transform="translate(-557.20014,408.70772)"
           d="m 483,460.5625 0,4 0,4 0,4 0,4 0,4 4,0 0,-4 0,-4 4,0 0,4 4,0 0,4 4,0 0,-4 0,-4 0,-4 0,-4 0,-4 -4,0 0,4 0,4 -4,0 0,-4 -4,0 0,-4 -4,0 z"
           style="fill:#ffffff;fill-opacity:1;fill-rule:evenodd;stroke:none" />
        <g
           style="fill:#ffffff;fill-opacity:1;stroke:none"
           id="g4131"
           transform="translate(-512.18795,388.90873)">
          <path
             inkscape:connector-curvature="0"
             id="rect3674"
             transform="translate(-45.01219,19.79899)"
             d="m 217,460.5625 0,4 0,4 0,4 0,4 0,4 4,0 0,-4 0,-4 4,0 4,0 0,4 0,4 4,0 0,-4 0,-4 0,-4 0,-4 0,-4 -4,0 0,4 0,4 -4,0 -4,0 0,-4 0,-4 -4,0 z"
             style="fill:#ffffff;fill-opacity:1;fill-rule:evenodd;stroke:none" />
        </g>
        <g
           style="fill:#ffffff;fill-opacity:1;stroke:none"
           id="g4145"
           transform="translate(-512.18795,388.90873)">
          <path
             inkscape:connector-curvature="0"
             id="rect3668"
             transform="translate(-45.01219,19.79899)"
             d="m 237,460.5625 0,4 4,0 2,0 0,4 0,4 0,4 0,4 4,0 0,-4 0,-4 0,-4 0,-4 2,0 4,0 0,-4 -4,0 -4,0 -4,0 -4,0 z"
             style="fill:#ffffff;fill-opacity:1;fill-rule:evenodd;stroke:none" />
        </g>
        <g
           style="fill:#ffffff;fill-opacity:1;stroke:none"
           id="g4063"
           transform="translate(-484.18795,352.90873)">
          <path
             sodipodi:nodetypes="ccccccccccccccccccccccc"
             inkscape:connector-curvature="0"
             id="rect3944"
             transform="translate(-73.01219,55.79899)"
             d="m 353,460.5625 0,4 0,4 0,4 0,4 0,4 4,0 0,-4 0,-4 4,0 0,4 0,4 4,0 0,-4 0,-4 4,0 0,-4 0,-4 0,-4 -4,0 -4,0 -4,0 z"
             style="fill:#ffffff;fill-opacity:1;fill-rule:evenodd;stroke:none" />
        </g>
        <g
           style="fill:#ffffff;fill-opacity:1;stroke:none"
           id="g4121"
           transform="translate(-512.18795,388.90873)">
          <path
             inkscape:connector-curvature="0"
             id="rect3980"
             transform="translate(-45.01219,19.79899)"
             d="m 257,460.5625 0,4 4,0 2,0 0,4 0,4 0,4 0,4 4,0 0,-4 0,-4 0,-4 0,-4 2,0 4,0 0,-4 -4,0 -4,0 -4,0 -4,0 z"
             style="fill:#ffffff;fill-opacity:1;fill-rule:evenodd;stroke:none" />
        </g>
        <g
           style="fill:#ffffff;fill-opacity:1;stroke:none"
           id="g4105"
           transform="translate(-508.18795,388.90873)">
          <path
             inkscape:connector-curvature="0"
             id="rect3718"
             transform="translate(-49.01219,19.79899)"
             d="m 297,460.5625 0,4 0,4 0,4 4,0 4,0 4,0 0,4 -4,0 -4,0 -4,0 0,4 4,0 4,0 4,0 4,0 0,-4 0,-4 0,-4 -4,0 -4,0 -4,0 0,-4 4,0 4,0 4,0 0,-4 -4,0 -4,0 -4,0 -4,0 z"
             style="fill:#ffffff;fill-opacity:1;fill-rule:evenodd;stroke:none" />
        </g>
        <g
           style="fill:#ffffff;fill-opacity:1;stroke:none"
           transform="translate(-412.18795,388.90873)"
           id="g4161">
          <path
             inkscape:connector-curvature="0"
             id="rect4163"
             transform="translate(-145.01219,19.79899)"
             d="m 393,460.5625 0,4 0,4 0,4 4,0 4,0 4,0 0,4 -4,0 -4,0 -4,0 0,4 4,0 4,0 4,0 4,0 0,-4 0,-4 0,-4 -4,0 -4,0 -4,0 0,-4 4,0 4,0 4,0 0,-4 -4,0 -4,0 -4,0 -4,0 z"
             style="fill:#ffffff;fill-opacity:1;fill-rule:evenodd;stroke:none" />
        </g>
        <g
           style="fill:#ffffff;fill-opacity:1;stroke:none"
           transform="translate(-336.18795,360.90873)"
           id="g4209">
          <path
             inkscape:connector-curvature="0"
             id="rect4211"
             transform="translate(-221.01219,47.79899)"
             d="m 453,460.5625 0,12 0,4 0,4 4,0 0,-4 0,-4 12,0 0,-12 -16,0 z"
             style="fill:#ffffff;fill-opacity:1;fill-rule:evenodd;stroke:none" />
        </g>
        <g
           style="fill:#ffffff;fill-opacity:1;stroke:none"
           id="g4217"
           transform="translate(-426.18795,388.90873)">
          <path
             inkscape:connector-curvature="0"
             id="rect4219"
             transform="translate(-131.01219,19.79899)"
             d="m 503,460.5625 0,4 0,4 0,4 0,4 0,4 4,0 4,0 4,0 4,0 0,-4 -4,0 -4,0 -4,0 0,-4 4,0 4,0 0,-4 -4,0 -4,0 0,-4 4,0 4,0 4,0 0,-4 -4,0 -4,0 -4,0 -4,0 z"
             style="fill:#ffffff;fill-opacity:1;fill-rule:evenodd;stroke:none" />
        </g>
        <g
           style="fill:#ffffff;fill-opacity:1;stroke:none"
           transform="translate(-246.18795,388.90873)"
           id="g4245">
          <path
             inkscape:connector-curvature="0"
             id="rect4247"
             transform="translate(-311.01219,19.79899)"
             d="m 523,460.5625 0,4 4,0 2,0 0,4 0,4 0,4 0,4 4,0 0,-4 0,-4 0,-4 0,-4 2,0 4,0 0,-4 -4,0 -4,0 -4,0 -4,0 z"
             style="fill:#ffffff;fill-opacity:1;fill-rule:evenodd;stroke:none" />
        </g>
      </g>
    </g>
  </g>
</svg>
